campaign,email_address,email_body,final_status,datetime_added,datetime_sent,datetime_failed,datetime_read
Alteração de morada - 2018,client1@byside.com,?,sent,2018-01-01T00:00:01Z,2018-01-01T00:01:01Z,,
Alteração de morada - 2018,client2@byside.com,?,failed,2018-01-01T00:00:02Z,2018-01-01T00:01:02Z,2018-01-01T00:01:12Z,
Alteração de morada - 2018,client3@byside.com,?,sent,2018-01-01T00:00:03Z,2018-01-01T00:01:03Z,,
Alteração de morada - 2018,client4@byside.com,?,read,2018-01-01T00:00:04Z,2018-01-01T00:01:04Z,,2018-01-01T10:00:00Z
Alteração de morada - 2018,client5@byside.com,?,read,2018-01-01T00:00:05Z,2018-01-01T00:01:05Z,,2018-01-01T10:00:01Z
Alteração de morada - 2019,client1@byside.com,?,added,2019-01-01T00:00:01Z,,,
Alteração de morada - 2019,client2@byside.com,?,added,2019-01-01T00:00:02Z,,,
Alteração de morada - 2019,client3@byside.com,?,added,2019-01-01T00:00:03Z,,,
Alteração de morada - 2019,client4@byside.com,?,added,2019-01-01T00:00:04Z,,,
Alteração de morada - 2019,client5@byside.com,?,added,2019-01-01T00:00:05Z,,,
Promoções - 2018.1,target_client1@byside.com,?,sent,2018-01-03T00:00:01Z,2018-01-03T00:01:01Z,,
Promoções - 2018.1,target_client2@byside.com,?,failed,2018-01-03T00:00:02Z,2018-01-03T00:01:02Z,2018-01-03T00:01:12Z,
Promoções - 2018.1,target_client3@byside.com,?,read,2018-01-03T00:00:03Z,2018-01-03T00:01:03Z,,2018-01-03T08:00:03Z
Promoções - 2018.1,target_client4@byside.com,?,sent,2018-01-03T00:00:04Z,2018-01-03T00:01:04Z,,
Promoções - 2018.1,target_client5@byside.com,?,failed,2018-01-03T00:00:05Z,2018-01-03T00:01:05Z,2018-01-03T00:01:15Z,
Promoções - 2018.2,target_client1@byside.com,?,sent,2018-01-10T00:00:01Z,2018-01-10T00:01:01Z,,
Promoções - 2018.2,target_client2@byside.com,?,sent,2018-01-10T00:00:02Z,2018-01-10T00:01:02Z,,
Promoções - 2018.2,target_client3@byside.com,?,read,2018-01-10T00:00:03Z,2018-01-10T00:01:03Z,,2018-01-10T00:01:03Z
Promoções - 2018.2,target_client4@byside.com,?,read,2018-01-10T00:00:04Z,2018-01-10T00:01:04Z,,2018-01-10T00:01:04Z
Promoções - 2018.2,target_client5@byside.com,?,read,2018-01-10T00:00:05Z,2018-01-10T00:01:05Z,,2018-01-10T00:01:05Z